example/siggen_tb.vcd
$date
     Jul 31, 2018       20:56:27
$end

$version
 SystemC 2.3.1-Accellera --- Jun 19 2018 16:22:13
$end

$timescale
     1 ps
$end

$scope module SystemC $end
$var wire    1  aaaaa  clock       $end
$var wire    1  aaaab  reset       $end
$var wire    1  aaaac  enable       $end
$var wire    1  aaaad  sgactive       $end
$var wire    1  aaaae  line       $end
$upscope $end
$enddefinitions  $end

$comment
All initial values are dumped below at time 0 sec = 0 timescale units.
$end

$dumpvars
1aaaaa
0aaaab
0aaaac
0aaaad
xaaaae
$end

#500
0aaaaa

#1000
1aaaaa

#1500
0aaaaa

#2000
1aaaaa

#2500
0aaaaa

#3000
1aaaaa

#3500
0aaaaa

#4000
1aaaaa

#4500
0aaaaa

#5000
1aaaaa

#5500
0aaaaa

#6000
1aaaaa

#6500
0aaaaa

#7000
1aaaaa

#7500
0aaaaa

#8000
1aaaaa

#8500
0aaaaa

#9000
1aaaaa

#9500
0aaaaa

#10000
1aaaaa
1aaaab

#10500
0aaaaa

#11000
1aaaaa

#11500
0aaaaa

#12000
1aaaaa

#12500
0aaaaa

#13000
1aaaaa

#13500
0aaaaa

#14000
1aaaaa

#14500
0aaaaa

#15000
1aaaaa

#15500
0aaaaa

#16000
1aaaaa

#16500
0aaaaa

#17000
1aaaaa

#17500
0aaaaa

#18000
1aaaaa

#18500
0aaaaa

#19000
1aaaaa

#19500
0aaaaa

#20000
1aaaaa
0aaaab

#20500
0aaaaa

#21000
1aaaaa

#21500
0aaaaa

#22000
1aaaaa

#22500
0aaaaa

#23000
1aaaaa

#23500
0aaaaa

#24000
1aaaaa

#24500
0aaaaa

#25000
1aaaaa

#25500
0aaaaa

#26000
1aaaaa

#26500
0aaaaa

#27000
1aaaaa

#27500
0aaaaa

#28000
1aaaaa

#28500
0aaaaa

#29000
1aaaaa

#29500
0aaaaa

#30000
1aaaaa
1aaaac
1aaaad
1aaaae

#30500
0aaaaa
0aaaae

#31000
1aaaaa
zaaaae

#31500
0aaaaa
xaaaae

#32000
1aaaaa
1aaaae

#32500
0aaaaa

#33000
1aaaaa
0aaaae

#33500
0aaaaa

#34000
1aaaaa
xaaaae

#34500
0aaaaa

#35000
1aaaaa
0aaaac

#35500
0aaaaa

#36000
1aaaaa

#36500
0aaaaa

#37000
1aaaaa

#37500
0aaaaa

#38000
1aaaaa

#38500
0aaaaa

#39000
1aaaaa

#39500
0aaaaa

#40000
1aaaaa
1aaaac
zaaaae

#40500
0aaaaa

#41000
1aaaaa
1aaaae

#41500
0aaaaa
0aaaae

#42000
1aaaaa
zaaaae

#42500
0aaaaa
xaaaae

#43000
1aaaaa
0aaaad

